# 
# 

newmtl JenniferBody
Ns 96.078431
Ka 0.000000 0.000000 0.000000
Kd 0.640000 0.640000 0.640000
Ks 0.000000 0.000000 0.000000
Ni 1.000000
d 1.000000
illum 1
map_Kd Jennifer_Body_D.tga

newmtl JenniferEye
Ns 96.078431
Ka 0.640000 0.640000 0.640000
Kd 0.640000 0.640000 0.640000
Ks 0.000000 0.000000 0.000000
Ni 1.000000
d 1.000000
illum 1
map_Kd Jennifer_Eye_D.tga

newmtl JenniferEyelash
Ns 96.078431
Ka 0.640000 0.640000 0.640000
Kd 0.640000 0.640000 0.640000
Ks 0.000000 0.000000 0.000000
Ni 1.000000
d 0.000000
illum 1
map_Kd Jennifer_Eyelash_D.tga

newmtl JenniferHair
Ns 96.078431
Ka 0.640000 0.640000 0.640000
Kd 0.640000 0.640000 0.640000
Ks 0.000000 0.000000 0.000000
Ni 1.000000
d 0.000000
illum 1
map_Kd Jennifer_Hair_D.tga

newmtl JenniferHead
Ns 96.078431
Ka 0.64000 0.640000 0.640000
Kd 0.640000 0.640000 0.640000
Ks 0.000000 0.000000 0.000000
Ni 1.000000
d 1.000000
illum 1
map_Kd Jennifer_Head_D.tga
