# Blender v2.69 (sub 0) OBJ File: 'template.blend'
# www.blender.org
mtllib hackingscreen.mtl
g rdmobj01.001
v -22.427206 121.985741 -0.042936
v 22.572792 121.985741 -0.042943
v -22.427206 157.855743 -0.042942
v 22.572792 157.855743 -0.042949
vt 1.000000 -1.000000
vt 0.000031 -1.000000
vt 1.000000 -0.199463
vt 0.000031 -0.199463
usemtl mi_HackingScreen
s 1
f 1/1 2/2 3/3
f 2/2 4/4 3/3
